Pair /PC/e_e:
        \tau  m|m0.125    |m0.25     |m0.5      |m1        |m2        |m4        |m8        |
        -------------------------------------------------------------------------------------
    Rave
        tau0.0 |2.2647(16)|2.2359(19)|2.2157(18)|2.1998(14)|2.1941(16)|2.1860(24)|2.1808(33)|
        tau0.01|2.2647(14)|2.2359(15)|2.2154(16)|2.2001(12)|2.1937(13)|2.1863(22)|2.1810(29)|
        tau0.03|2.2647(13)|2.2362(12)|2.2177(12)|2.2029(11)|2.1949(12)|2.1870(13)|2.1827(15)|
        tau0.05|2.2645(15)|2.2362(13)|2.2165(12)|2.2031(6) |2.1937(13)|2.1877(13)|2.1830(16)|
    R2ave
        tau0.0 |2.2647(16)|2.2359(19)|2.2157(18)|2.1998(14)|2.1941(16)|2.1860(24)|2.1808(33)|
        tau0.01|2.2647(14)|2.2359(15)|2.2154(16)|2.2001(12)|2.1937(13)|2.1863(22)|2.1810(29)|
        tau0.03|2.2647(13)|2.2362(12)|2.2177(12)|2.2029(11)|2.1949(12)|2.1870(13)|2.1827(15)|
        tau0.05|2.2645(15)|2.2362(13)|2.2165(12)|2.2031(6) |2.1937(13)|2.1877(13)|2.1830(16)|
    Rave1per
        tau0.0 |2.2647(16)|2.2359(19)|2.2157(18)|2.1998(14)|2.1941(16)|2.1860(24)|2.1808(33)|
        tau0.01|2.2647(14)|2.2359(15)|2.2154(16)|2.2001(12)|2.1937(13)|2.1863(22)|2.1810(29)|
        tau0.03|2.2647(13)|2.2362(12)|2.2177(12)|2.2029(11)|2.1949(12)|2.1870(13)|2.1827(15)|
        tau0.05|2.2645(15)|2.2362(13)|2.2165(12)|2.2031(6) |2.1937(13)|2.1877(13)|2.1830(16)|

Pair /PC/e_p:
        \tau  m|m0.125    |m0.25     |m0.5      |m1        |m2        |m4        |m8        |
        -------------------------------------------------------------------------------------
    Rave
        tau0.0 |1.6253(11)|1.6026(12)|1.5866(11)|1.5744(9) |1.5692(11)|1.5628(16)|1.5585(24)|
        tau0.01|1.6253(10)|1.6026(10)|1.5864(10)|1.5746(8) |1.5689(9) |1.5630(15)|1.5587(22)|
        tau0.03|1.6254(9) |1.6028(9) |1.5879(8) |1.5764(7) |1.5698(9) |1.5636(9) |1.5599(11)|
        tau0.05|1.6254(10)|1.6028(9) |1.5871(8) |1.5764(4) |1.5688(8) |1.5639(9) |1.5602(10)|
    R2ave
        tau0.0 |1.6253(11)|1.6026(12)|1.5866(11)|1.5744(9) |1.5692(11)|1.5628(16)|1.5585(24)|
        tau0.01|1.6253(10)|1.6026(10)|1.5864(10)|1.5746(8) |1.5689(9) |1.5630(15)|1.5587(22)|
        tau0.03|1.6254(9) |1.6028(9) |1.5879(8) |1.5764(7) |1.5698(9) |1.5636(9) |1.5599(11)|
        tau0.05|1.6254(10)|1.6028(9) |1.5871(8) |1.5764(4) |1.5688(8) |1.5639(9) |1.5602(10)|
    Rave1per
        tau0.0 |1.6253(11)|1.6026(12)|1.5866(11)|1.5744(9) |1.5692(11)|1.5628(16)|1.5585(24)|
        tau0.01|1.6253(10)|1.6026(10)|1.5864(10)|1.5746(8) |1.5689(9) |1.5630(15)|1.5587(22)|
        tau0.03|1.6254(9) |1.6028(9) |1.5879(8) |1.5764(7) |1.5698(9) |1.5636(9) |1.5599(11)|
        tau0.05|1.6254(10)|1.6028(9) |1.5871(8) |1.5764(4) |1.5688(8) |1.5639(9) |1.5602(10)|

Pair /PC/p_p:
        \tau  m|m0.125    |m0.25     |m0.5      |m1        |m2        |m4        |m8        |
        -------------------------------------------------------------------------------------
    Rave
        tau0.0 |1.5414(16)|1.5005(17)|1.4714(16)|1.4511(14)|1.4389(19)|1.4275(22)|1.419(4)  |
        tau0.01|1.5415(15)|1.5006(14)|1.4711(14)|1.4510(11)|1.4384(16)|1.4275(20)|1.420(4)  |
        tau0.03|1.5419(12)|1.5006(12)|1.4727(11)|1.4522(10)|1.4392(11)|1.4285(11)|1.4207(13)|
        tau0.05|1.5420(14)|1.5007(11)|1.4716(11)|1.4518(5) |1.4379(10)|1.4282(11)|1.4216(12)|
    R2ave
        tau0.0 |1.5414(16)|1.5005(17)|1.4714(16)|1.4511(14)|1.4389(19)|1.4275(22)|1.419(4)  |
        tau0.01|1.5415(15)|1.5006(14)|1.4711(14)|1.4510(11)|1.4384(16)|1.4275(20)|1.420(4)  |
        tau0.03|1.5419(12)|1.5006(12)|1.4727(11)|1.4522(10)|1.4392(11)|1.4285(11)|1.4207(13)|
        tau0.05|1.5420(14)|1.5007(11)|1.4716(11)|1.4518(5) |1.4379(10)|1.4282(11)|1.4216(12)|
    Rave1per
        tau0.0 |1.5414(16)|1.5005(17)|1.4714(16)|1.4511(14)|1.4389(19)|1.4275(22)|1.419(4)  |
        tau0.01|1.5415(15)|1.5006(14)|1.4711(14)|1.4510(11)|1.4384(16)|1.4275(20)|1.420(4)  |
        tau0.03|1.5419(12)|1.5006(12)|1.4727(11)|1.4522(10)|1.4392(11)|1.4285(11)|1.4207(13)|
        tau0.05|1.5420(14)|1.5007(11)|1.4716(11)|1.4518(5) |1.4379(10)|1.4282(11)|1.4216(12)|

flatpad 2021-04-07T12:22:55


Pair correlation distribution data PC/e_e/:
        \tau  m|m0.125 |m0.25  |m0.5   |m1     |m2     |m4     |m8     |
        ----------------------------------------------------------------
    r at maximal probability:
        tau0.01|1.89362|1.85674|1.83597|1.83587|1.83514|1.81600|1.82630|
        tau0.03|1.89698|1.86516|1.83437|1.82427|1.84828|1.81679|1.83933|
        tau0.05|1.88886|1.86863|1.84537|1.81844|1.82441|1.81868|1.78963|
    expected value of r, (should be the same as 'Rave'):
        tau0.01|2.26466|2.23594|2.21542|2.20007|2.19368|2.18631|2.18100|
        tau0.03|2.26468|2.23616|2.21768|2.20293|2.19489|2.18699|2.18273|
        tau0.05|2.26452|2.23620|2.21653|2.20309|2.19371|2.18768|2.18296|
    hwhm (i.e. half width):
        tau0.01|1.10955|1.09254|1.08044|1.07219|1.06760|1.06272|1.06033|
        tau0.03|1.10962|1.09263|1.08123|1.07273|1.06798|1.06368|1.06104|
        tau0.05|1.10966|1.09251|1.08035|1.07312|1.06701|1.06395|1.06094|

Pair correlation distribution data PC/e_p/:
        \tau  m|m0.125 |m0.25  |m0.5   |m1     |m2     |m4     |m8     |
        ----------------------------------------------------------------
    r at maximal probability:
        tau0.01|1.30440|1.30422|1.30624|1.30536|1.30817|1.30571|1.31024|
        tau0.03|1.29989|1.30559|1.31204|1.30588|1.31171|1.31323|1.31320|
        tau0.05|1.30288|1.30686|1.30545|1.30612|1.30438|1.31485|1.30952|
    expected value of r, (should be the same as 'Rave'):
        tau0.01|1.62533|1.60264|1.58640|1.57457|1.56889|1.56299|1.55875|
        tau0.03|1.62543|1.60280|1.58793|1.57635|1.56975|1.56365|1.55991|
        tau0.05|1.62542|1.60285|1.58714|1.57638|1.56880|1.56391|1.56024|
    hwhm (i.e. half width):
        tau0.01|0.934328|0.911362|0.893909|0.881913|0.873516|0.866687|0.861821|
        tau0.03|0.934460|0.911315|0.894945|0.882436|0.874108|0.867267|0.862308|
        tau0.05|0.934530|0.911433|0.894343|0.882217|0.873502|0.867175|0.862842|

Pair correlation distribution data PC/p_p/:
        \tau  m|m0.125 |m0.25  |m0.5   |m1     |m2     |m4     |m8     |
        ----------------------------------------------------------------
    r at maximal probability:
        tau0.01|1.49427|1.46717|1.44772|1.43545|1.42647|1.41955|1.41353|
        tau0.03|1.49596|1.46827|1.45001|1.43611|1.42842|1.42094|1.41530|
        tau0.05|1.49577|1.46782|1.44915|1.43578|1.42678|1.42057|1.41605|
    expected value of r, (should be the same as 'Rave'):
        tau0.01|1.54150|1.50056|1.47108|1.45100|1.43840|1.42751|1.41957|
        tau0.03|1.54191|1.50057|1.47268|1.45219|1.43922|1.42853|1.42068|
        tau0.05|1.54203|1.50068|1.47157|1.45178|1.43786|1.42823|1.42163|
    hwhm (i.e. half width):
        tau0.01|0.340276|0.282522|0.236028|0.201328|0.164801|0.138248|0.116504|
        tau0.03|0.340352|0.282679|0.236180|0.197282|0.165152|0.138595|0.116041|
        tau0.05|0.340974|0.283020|0.235635|0.197040|0.165055|0.138048|0.116522|

Pair /PC/e_e:
        \tau  m|m0.125    |m0.25     |m0.5      |m1        |m2        |m4        |m8        |
        -------------------------------------------------------------------------------------
    Rave
        tau0.0 |2.2647(16)|2.2359(19)|2.2157(18)|2.1998(14)|2.1941(16)|2.1860(24)|2.1808(33)|
        tau0.01|2.2647(14)|2.2359(15)|2.2154(16)|2.2001(12)|2.1937(13)|2.1863(22)|2.1810(29)|
        tau0.03|2.2647(13)|2.2362(12)|2.2177(12)|2.2029(11)|2.1949(12)|2.1870(13)|2.1827(15)|
        tau0.05|2.2645(15)|2.2362(13)|2.2165(12)|2.2031(6) |2.1937(13)|2.1877(13)|2.1830(16)|
    R2ave
        tau0.0 |6.150(9)  |5.991(10) |5.882(10) |5.795(7)  |5.765(8)  |5.722(13) |5.694(16) |
        tau0.01|6.149(7)  |5.992(8)  |5.881(8)  |5.797(6)  |5.763(7)  |5.724(11) |5.695(15) |
        tau0.03|6.149(7)  |5.993(7)  |5.893(7)  |5.813(6)  |5.770(7)  |5.727(7)  |5.705(8)  |
        tau0.05|6.149(8)  |5.994(7)  |5.887(7)  |5.8145(31)|5.763(7)  |5.732(7)  |5.706(9)  |
    Rave1per
        tau0.0 |0.5640(4)  |0.5708(5)  |0.5757(5)  |0.5795(4)  |0.5809(4)  |0.5829(7)  |0.5843(9)  |
        tau0.01|0.5640(4)  |0.5708(4)  |0.5758(4)  |0.57948(34)|0.5811(4)  |0.5829(6)  |0.5842(8)  |
        tau0.03|0.56400(32)|0.57078(33)|0.57521(34)|0.57881(29)|0.58074(33)|0.58271(35)|0.5838(4)  |
        tau0.05|0.5641(4)  |0.57082(34)|0.57559(32)|0.57883(15)|0.58107(33)|0.58262(35)|0.5837(4)  |

Pair /PC/e_p:
        \tau  m|m0.125    |m0.25     |m0.5      |m1        |m2        |m4        |m8        |
        -------------------------------------------------------------------------------------
    Rave
        tau0.0 |1.6253(11)|1.6026(12)|1.5866(11)|1.5744(9) |1.5692(11)|1.5628(16)|1.5585(24)|
        tau0.01|1.6253(10)|1.6026(10)|1.5864(10)|1.5746(8) |1.5689(9) |1.5630(15)|1.5587(22)|
        tau0.03|1.6254(9) |1.6028(9) |1.5879(8) |1.5764(7) |1.5698(9) |1.5636(9) |1.5599(11)|
        tau0.05|1.6254(10)|1.6028(9) |1.5871(8) |1.5764(4) |1.5688(8) |1.5639(9) |1.5602(10)|
    R2ave
        tau0.0 |3.362(5)  |3.263(5)  |3.194(5)  |3.142(4)  |3.120(4)  |3.094(7)  |3.076(10) |
        tau0.01|3.362(4)  |3.263(4)  |3.194(4)  |3.1428(34)|3.119(4)  |3.095(6)  |3.077(9)  |
        tau0.03|3.362(4)  |3.264(4)  |3.2003(35)|3.1508(30)|3.1230(35)|3.097(4)  |3.082(4)  |
        tau0.05|3.363(4)  |3.264(4)  |3.197(4)  |3.1513(16)|3.1192(35)|3.099(4)  |3.083(4)  |
    Rave1per
        tau0.0 |0.8808(6)  |0.8901(6)  |0.8966(7)  |0.9016(5)  |0.9037(6)  |0.9065(9)  |0.9085(12) |
        tau0.01|0.8808(5)  |0.8901(5)  |0.8967(6)  |0.9015(5)  |0.9039(5)  |0.9065(8)  |0.9084(12) |
        tau0.03|0.8807(4)  |0.8899(4)  |0.8960(4)  |0.9009(4)  |0.9035(5)  |0.9061(5)  |0.9077(6)  |
        tau0.05|0.8808(5)  |0.8900(4)  |0.8965(4)  |0.90090(20)|0.9040(4)  |0.9061(5)  |0.9075(5)  |

Pair /PC/p_p:
        \tau  m|m0.125    |m0.25     |m0.5      |m1        |m2        |m4        |m8        |
        -------------------------------------------------------------------------------------
    Rave
        tau0.0 |1.5414(16)|1.5005(17)|1.4714(16)|1.4511(14)|1.4389(19)|1.4275(22)|1.419(4)  |
        tau0.01|1.5415(15)|1.5006(14)|1.4711(14)|1.4510(11)|1.4384(16)|1.4275(20)|1.420(4)  |
        tau0.03|1.5419(12)|1.5006(12)|1.4727(11)|1.4522(10)|1.4392(11)|1.4285(11)|1.4207(13)|
        tau0.05|1.5420(14)|1.5007(11)|1.4716(11)|1.4518(5) |1.4379(10)|1.4282(11)|1.4216(12)|
    R2ave
        tau0.0 |2.462(6)  |2.310(5)  |2.206(5)  |2.134(4)  |2.090(5)  |2.052(6)  |2.024(12) |
        tau0.01|2.462(5)  |2.310(4)  |2.205(4)  |2.1336(34)|2.089(5)  |2.052(6)  |2.025(11) |
        tau0.03|2.463(4)  |2.310(4)  |2.2095(34)|2.1372(29)|2.0911(33)|2.0546(33)|2.028(4)  |
        tau0.05|2.464(4)  |2.311(4)  |2.2061(32)|2.1359(14)|2.0872(30)|2.0537(31)|2.0308(35)|
    Rave1per
        tau0.0 |0.6734(8)  |0.6845(8)  |0.6927(8)  |0.6986(6)  |0.7017(9)  |0.7053(11) |0.7081(21) |
        tau0.01|0.6734(6)  |0.6844(7)  |0.6929(7)  |0.6986(5)  |0.7020(8)  |0.7053(10) |0.7079(20) |
        tau0.03|0.6732(5)  |0.6845(5)  |0.6921(5)  |0.6980(5)  |0.7015(6)  |0.7048(6)  |0.7073(7)  |
        tau0.05|0.6732(6)  |0.6844(5)  |0.6926(5)  |0.69822(23)|0.7022(5)  |0.7050(5)  |0.7069(6)  |

flatpad 2021-04-07T17:59:48


Pair correlation distribution data PC/e_e/:
        \tau  m|m0.125 |m0.25  |m0.5   |m1     |m2     |m4     |m8     |
        ----------------------------------------------------------------
    r at maximal probability:
        tau0.01|1.89362|1.85674|1.83597|1.83587|1.83514|1.81600|1.82630|
        tau0.03|1.89698|1.86516|1.83437|1.82427|1.84828|1.81679|1.83933|
        tau0.05|1.88886|1.86863|1.84537|1.81844|1.82441|1.81868|1.78963|
    expected value of r, (should be the same as 'Rave'):
        tau0.01|2.26466|2.23594|2.21542|2.20007|2.19368|2.18631|2.18100|
        tau0.03|2.26468|2.23616|2.21768|2.20293|2.19489|2.18699|2.18273|
        tau0.05|2.26452|2.23620|2.21653|2.20309|2.19371|2.18768|2.18296|
    hwhm (i.e. half width):
        tau0.01|1.10955|1.09254|1.08044|1.07219|1.06760|1.06272|1.06033|
        tau0.03|1.10962|1.09263|1.08123|1.07273|1.06798|1.06368|1.06104|
        tau0.05|1.10966|1.09251|1.08035|1.07312|1.06701|1.06395|1.06094|

Pair correlation distribution data PC/e_p/:
        \tau  m|m0.125 |m0.25  |m0.5   |m1     |m2     |m4     |m8     |
        ----------------------------------------------------------------
    r at maximal probability:
        tau0.01|1.30440|1.30422|1.30624|1.30536|1.30817|1.30571|1.31024|
        tau0.03|1.29989|1.30559|1.31204|1.30588|1.31171|1.31323|1.31320|
        tau0.05|1.30288|1.30686|1.30545|1.30612|1.30438|1.31485|1.30952|
    expected value of r, (should be the same as 'Rave'):
        tau0.01|1.62533|1.60264|1.58640|1.57457|1.56889|1.56299|1.55875|
        tau0.03|1.62543|1.60280|1.58793|1.57635|1.56975|1.56365|1.55991|
        tau0.05|1.62542|1.60285|1.58714|1.57638|1.56880|1.56391|1.56024|
    hwhm (i.e. half width):
        tau0.01|0.934328|0.911362|0.893909|0.881913|0.873516|0.866687|0.861821|
        tau0.03|0.934460|0.911315|0.894945|0.882436|0.874108|0.867267|0.862308|
        tau0.05|0.934530|0.911433|0.894343|0.882217|0.873502|0.867175|0.862842|

Pair correlation distribution data PC/p_p/:
        \tau  m|m0.125 |m0.25  |m0.5   |m1     |m2     |m4     |m8     |
        ----------------------------------------------------------------
    r at maximal probability:
        tau0.01|1.49427|1.46717|1.44772|1.43545|1.42647|1.41955|1.41353|
        tau0.03|1.49596|1.46827|1.45001|1.43611|1.42842|1.42094|1.41530|
        tau0.05|1.49577|1.46782|1.44915|1.43578|1.42678|1.42057|1.41605|
    expected value of r, (should be the same as 'Rave'):
        tau0.01|1.54150|1.50056|1.47108|1.45100|1.43840|1.42751|1.41957|
        tau0.03|1.54191|1.50057|1.47268|1.45219|1.43922|1.42853|1.42068|
        tau0.05|1.54203|1.50068|1.47157|1.45178|1.43786|1.42823|1.42163|
    hwhm (i.e. half width):
        tau0.01|0.340276|0.282522|0.236028|0.201328|0.164801|0.138248|0.116504|
        tau0.03|0.340352|0.282679|0.236180|0.197282|0.165152|0.138595|0.116041|
        tau0.05|0.340974|0.283020|0.235635|0.197040|0.165055|0.138048|0.116522|

